1st Doc
…
Exploratory Data Analysis

How and why do home runs happen?

Sometimes Useful Functions

Filtering Rows

We can use filter to

train |>
  filter(is_home_run == 1)

# A tibble: 613 × 33
   bip_id game_date  home_team away_team batter_team batter_name    pitcher_name
    <dbl> <date>     <chr>     <chr>     <chr>       <chr>          <chr>       
 1  63561 2020-09-17 TB        BAL       BAL         alberto, hans… richards, t…
 2 115167 2020-09-11 NYY       BAL       NYY         voit, luke     wojciechows…
 3  51861 2020-09-13 TOR       NYM       TOR         gurriel, lour… peterson, d…
 4  53127 2020-08-31 NYM       MIA       NYM         cano, robinson vesia, alex 
 5  61906 2020-08-15 CHC       MIL       CHC         souza, steven  knebel, cor…
 6 111834 2020-08-23 PIT       MIL       MIL         smoak, justin  hartlieb, g…
 7  41559 2020-10-15 ATL       LAD       LAD         rios, edwin    wilson, bry…
 8  26757 2020-10-07 ATL       MIA       ATL         swanson, dans… lopez, pablo
 9  57940 2020-10-02 CHC       MIA       MIA         cooper, garre… darvish, yu 
10  48391 2020-08-23 SF        ARI       SF          dickerson, al… rondon, hec…
# ℹ 603 more rows
# ℹ 26 more variables: batter_id <dbl>, pitcher_id <dbl>,
#   is_batter_lefty <dbl>, is_pitcher_lefty <dbl>, bb_type <chr>,
#   bearing <chr>, pitch_name <chr>, park <dbl>, inning <dbl>,
#   outs_when_up <dbl>, balls <dbl>, strikes <dbl>, plate_x <dbl>,
#   plate_z <dbl>, pitch_mph <dbl>, launch_speed <dbl>, launch_angle <dbl>,
#   is_home_run <dbl>, NAME <chr>, Cover <chr>, LF_Dim <int>, CF_Dim <int>, …

train |>
  filter(launch_angle > 45)

# A tibble: 970 × 33
   bip_id game_date  home_team away_team batter_team batter_name    pitcher_name
    <dbl> <date>     <chr>     <chr>     <chr>       <chr>          <chr>       
 1  54097 2020-08-23 STL       CIN       CIN         ervin, phil    reyes, alex 
 2 117224 2020-09-20 NYM       ATL       ATL         swanson, dans… porcello, r…
 3  96888 2020-09-25 TEX       HOU       HOU         maldonado, ma… cody, kyle  
 4  43175 2020-09-19 BAL       TB        BAL         mountcastle, … morton, cha…
 5  51557 2020-08-26 NYM       MIA       MIA         diaz, lewin    degrom, jac…
 6  88166 2020-08-14 PHI       NYM       NYM         ramos, wilson  howard, spe…
 7  55356 2020-08-19 OAK       ARI       OAK         olson, matt    kelly, merr…
 8  91031 2020-09-18 CHC       MIN       CHC         heyward, jason hill, rich  
 9  45871 2020-09-07 SD        COL       SD          machado, manny freeland, k…
10  86005 2020-08-08 TB        NYY       NYY         judge, aaron   glasnow, ty…
# ℹ 960 more rows
# ℹ 26 more variables: batter_id <dbl>, pitcher_id <dbl>,
#   is_batter_lefty <dbl>, is_pitcher_lefty <dbl>, bb_type <chr>,
#   bearing <chr>, pitch_name <chr>, park <dbl>, inning <dbl>,
#   outs_when_up <dbl>, balls <dbl>, strikes <dbl>, plate_x <dbl>,
#   plate_z <dbl>, pitch_mph <dbl>, launch_speed <dbl>, launch_angle <dbl>,
#   is_home_run <dbl>, NAME <chr>, Cover <chr>, LF_Dim <int>, CF_Dim <int>, …

train |>
  filter(str_detect(NAME, "Fenway"))

# A tibble: 386 × 33
   bip_id game_date  home_team away_team batter_team batter_name    pitcher_name
    <dbl> <date>     <chr>     <chr>     <chr>       <chr>          <chr>       
 1  72059 2020-07-25 BOS       BAL       BOS         peraza, jose   cobb, alex  
 2  89693 2020-07-25 BOS       BAL       BAL         hays, austin   perez, mart…
 3 116705 2020-09-01 BOS       ATL       ATL         freeman, fred… hart, kyle  
 4  81855 2020-07-26 BOS       BAL       BAL         davis, chris   weber, ryan 
 5 106913 2020-09-22 BOS       BAL       BOS         chavis, micha… akin, keegan
 6 111113 2020-08-29 BOS       WSH       WSH         eaton, adam    brice, aust…
 7 101052 2020-09-20 BOS       NYY       BOS         lin, tzu-wei   cessa, luis 
 8  99863 2020-09-18 BOS       NYY       BOS         bogaerts, xan… montgomery,…
 9 110912 2020-08-30 BOS       WSH       WSH         garcia, luis   osich, josh 
10  61092 2020-08-12 BOS       TB        BOS         vazquez, chri… snell, blake
# ℹ 376 more rows
# ℹ 26 more variables: batter_id <dbl>, pitcher_id <dbl>,
#   is_batter_lefty <dbl>, is_pitcher_lefty <dbl>, bb_type <chr>,
#   bearing <chr>, pitch_name <chr>, park <dbl>, inning <dbl>,
#   outs_when_up <dbl>, balls <dbl>, strikes <dbl>, plate_x <dbl>,
#   plate_z <dbl>, pitch_mph <dbl>, launch_speed <dbl>, launch_angle <dbl>,
#   is_home_run <dbl>, NAME <chr>, Cover <chr>, LF_Dim <int>, CF_Dim <int>, …

Selecting just a few columns

This doesn’t change our data set, but instead allows us to look at a few specific variables.

train |>
  select(launch_speed, launch_angle, is_home_run)

# A tibble: 11,050 × 3
   launch_speed launch_angle is_home_run
          <dbl>        <dbl>       <dbl>
 1         NA             -8           0
 2         71.9           NA           0
 3         97.2           23           0
 4         NA             54           0
 5         86.5           NA           0
 6         92.7           17           0
 7         83.4           14           0
 8        106.            18           0
 9         86.9          -11           0
10        104.            15           0
# ℹ 11,040 more rows

Building new variables from old one (Feature Engineering)

Mutate creates a new object based on our current ones. In this case, we used it to check if the speed of a pitch (pitch_mph) was above 100, and returned a new variable that answered either “yes” or “no” tacked onto the end of the data set. We can create a new set to either replace our original or make a separate set.

train |>
  mutate(fast_pitch = ifelse(pitch_mph > 100, "yes", "no"))

# A tibble: 11,050 × 34
   bip_id game_date  home_team away_team batter_team batter_name    pitcher_name
    <dbl> <date>     <chr>     <chr>     <chr>       <chr>          <chr>       
 1 117924 2020-08-31 CIN       STL       STL         edman, tommy   lorenzen, m…
 2  84178 2020-09-12 WSH       ATL       WSH         soto, juan     anderson, i…
 3 117768 2020-08-25 STL       KC        STL         wong, kolten   newberry, j…
 4  54097 2020-08-23 STL       CIN       CIN         ervin, phil    reyes, alex 
 5  58175 2020-09-25 CWS       CHC       CWS         grandal, yasm… darvish, yu 
 6 118766 2020-07-26 CWS       MIN       MIN         cruz, nelson   gonzalez, g…
 7  11349 2020-10-11 TB        HOU       TB          zunino, mike   valdez, fra…
 8  61080 2020-09-11 TB        BOS       BOS         bradley, jack… snell, blake
 9   2652 2020-08-23 SEA       TEX       SEA         bishop, braden minor, mike 
10  46583 2020-07-28 OAK       COL       OAK         laureano, ram… senzatela, …
# ℹ 11,040 more rows
# ℹ 27 more variables: batter_id <dbl>, pitcher_id <dbl>,
#   is_batter_lefty <dbl>, is_pitcher_lefty <dbl>, bb_type <chr>,
#   bearing <chr>, pitch_name <chr>, park <dbl>, inning <dbl>,
#   outs_when_up <dbl>, balls <dbl>, strikes <dbl>, plate_x <dbl>,
#   plate_z <dbl>, pitch_mph <dbl>, launch_speed <dbl>, launch_angle <dbl>,
#   is_home_run <dbl>, NAME <chr>, Cover <chr>, LF_Dim <int>, CF_Dim <int>, …
…
train |>
  group_by(NAME, is_home_run) |>
  filter(!is.na(launch_angle)) |>
  summarize(
    min_angle = min(launch_angle),
    mean_angle = mean(launch_angle),
    median_angle = median(launch_angle),
    max_angle = max(launch_angle),
    sd_angle = sd(launch_angle)
  )

`summarise()` has grouped output by 'NAME'. You can override using the
`.groups` argument.

# A tibble: 60 × 7
# Groups:   NAME [30]
   NAME         is_home_run min_angle mean_angle median_angle max_angle sd_angle
   <chr>              <dbl>     <dbl>      <dbl>        <dbl>     <dbl>    <dbl>
 1 Angel Stadi…           0       -66       13           11          86    29.0 
 2 Angel Stadi…           1        22       29.0         29          37     4.85
 3 Busch Stadi…           0       -77       12.0         14          81    29.5 
 4 Busch Stadi…           1        23       31.9         30.5        41     5.91
 5 Chase Field            0       -86       12.9         13.5        74    26.7 
 6 Chase Field            1        22       29.3         29          38     4.24
 7 Citi Field             0       -79       11.7         11          79    28.9 
 8 Citi Field             1        20       28.8         27          42     6.46
 9 Citizens Ba…           0       -70       11.9         13.5        83    29.3 
10 Citizens Ba…           1        11       29.3         28          44     7.32
# ℹ 50 more rows
…
